999
DXF from OpenSCAD
  0
SECTION
  2
HEADER
  9
$ACADVER
  1
AC1006
  9
$INSBASE
 10
0.0
 20
0.0
 30
0.0
  9
$EXTMIN
 10
-3.85
 20
-3.85
  9
$EXTMAX
 10
3.85
 20
3.85
  9
$LINMIN
 10
-3.85
 20
-3.85
  9
$LINMAX
 10
3.85
 20
3.85
  0
ENDSEC
  0
SECTION
  2
TABLES
  0
TABLE
  2
LTYPE
 70
1
  0
LTYPE
  2
CONTINUOUS
 70
64
  3
Solid line
 72
65
 73
0
 40
0.000000
  0
ENDTAB
  0
TABLE
  2
LAYER
 70
6
  0
LAYER
  2
0
 70
64
 62
7
  6
CONTINUOUS
  0
ENDTAB
  0
TABLE
  2
STYLE
 70
0
  0
ENDTAB
  0
ENDSEC
  0
SECTION
  2
BLOCKS
  0
ENDSEC
  0
SECTION
  2
ENTITIES
  0
LWPOLYLINE
100
AcDbEntity
  8
0
100
AcDbPolyline
 90
100
 70
1
 10
-3.85
 20
0
 10
-3.8424
 20
-0.241743
 10
-3.81964
 20
-0.482533
 10
-3.78181
 20
-0.721417
 10
-3.72904
 20
-0.957456
 10
-3.66157
 20
-1.18972
 10
-3.57964
 20
-1.41728
 10
-3.48358
 20
-1.63925
 10
-3.37378
 20
-1.85475
 10
-3.25066
 20
-2.06293
 10
-3.11471
 20
-2.26297
 10
-2.96648
 20
-2.45408
 10
-2.80653
 20
-2.63551
 10
-2.63551
 20
-2.80653
 10
-2.45408
 20
-2.96648
 10
-2.26297
 20
-3.11471
 10
-2.06293
 20
-3.25066
 10
-1.85475
 20
-3.37378
 10
-1.63925
 20
-3.48358
 10
-1.41728
 20
-3.57964
 10
-1.18972
 20
-3.66157
 10
-0.957456
 20
-3.72904
 10
-0.721417
 20
-3.78181
 10
-0.482533
 20
-3.81964
 10
-0.241743
 20
-3.8424
 10
0
 20
-3.85
 10
0.241743
 20
-3.8424
 10
0.482533
 20
-3.81964
 10
0.721417
 20
-3.78181
 10
0.957456
 20
-3.72904
 10
1.18972
 20
-3.66157
 10
1.41728
 20
-3.57964
 10
1.63925
 20
-3.48358
 10
1.85475
 20
-3.37378
 10
2.06293
 20
-3.25066
 10
2.26297
 20
-3.11471
 10
2.45408
 20
-2.96648
 10
2.63551
 20
-2.80653
 10
2.80653
 20
-2.63551
 10
2.96648
 20
-2.45408
 10
3.11471
 20
-2.26297
 10
3.25066
 20
-2.06293
 10
3.37378
 20
-1.85475
 10
3.48358
 20
-1.63925
 10
3.57964
 20
-1.41728
 10
3.66157
 20
-1.18972
 10
3.72904
 20
-0.957456
 10
3.78181
 20
-0.721417
 10
3.81964
 20
-0.482533
 10
3.8424
 20
-0.241743
 10
3.85
 20
0
 10
3.8424
 20
0.241743
 10
3.81964
 20
0.482533
 10
3.78181
 20
0.721417
 10
3.72904
 20
0.957456
 10
3.66157
 20
1.18972
 10
3.57964
 20
1.41728
 10
3.48358
 20
1.63925
 10
3.37378
 20
1.85475
 10
3.25066
 20
2.06293
 10
3.11471
 20
2.26297
 10
2.96648
 20
2.45408
 10
2.80653
 20
2.63551
 10
2.63551
 20
2.80653
 10
2.45408
 20
2.96648
 10
2.26297
 20
3.11471
 10
2.06293
 20
3.25066
 10
1.85475
 20
3.37378
 10
1.63925
 20
3.48358
 10
1.41728
 20
3.57964
 10
1.18972
 20
3.66157
 10
0.957456
 20
3.72904
 10
0.721417
 20
3.78181
 10
0.482533
 20
3.81964
 10
0.241743
 20
3.8424
 10
0
 20
3.85
 10
-0.241743
 20
3.8424
 10
-0.482533
 20
3.81964
 10
-0.721417
 20
3.78181
 10
-0.957456
 20
3.72904
 10
-1.18972
 20
3.66157
 10
-1.41728
 20
3.57964
 10
-1.63925
 20
3.48358
 10
-1.85475
 20
3.37378
 10
-2.06293
 20
3.25066
 10
-2.26297
 20
3.11471
 10
-2.45408
 20
2.96648
 10
-2.63551
 20
2.80653
 10
-2.80653
 20
2.63551
 10
-2.96648
 20
2.45408
 10
-3.11471
 20
2.26297
 10
-3.25066
 20
2.06293
 10
-3.37378
 20
1.85475
 10
-3.48358
 20
1.63925
 10
-3.57964
 20
1.41728
 10
-3.66157
 20
1.18972
 10
-3.72904
 20
0.957456
 10
-3.78181
 20
0.721417
 10
-3.81964
 20
0.482533
 10
-3.8424
 20
0.241743
  0
LWPOLYLINE
100
AcDbEntity
  8
0
100
AcDbPolyline
 90
69
 70
1
 10
-1.7
 20
-2.94275
 10
-1.7
 20
2.94275
 10
-1.63796
 20
2.97944
 10
-1.44765
 20
3.07641
 10
-1.25162
 20
3.16124
 10
-1.05066
 20
3.23359
 10
-0.845545
 20
3.29318
 10
-0.637096
 20
3.33978
 10
-0.426132
 20
3.37319
 10
-0.213488
 20
3.39329
 10
0
 20
3.4
 10
0.213488
 20
3.39329
 10
0.426132
 20
3.37319
 10
0.637096
 20
3.33978
 10
0.845545
 20
3.29318
 10
1.05066
 20
3.23359
 10
1.25162
 20
3.16124
 10
1.44765
 20
3.07641
 10
1.63796
 20
2.97944
 10
1.82181
 20
2.87071
 10
1.99847
 20
2.75066
 10
2.16724
 20
2.61974
 10
2.32746
 20
2.47849
 10
2.47849
 20
2.32746
 10
2.61974
 20
2.16724
 10
2.75066
 20
1.99847
 10
2.87071
 20
1.82181
 10
2.97944
 20
1.63796
 10
3.07641
 20
1.44765
 10
3.16124
 20
1.25162
 10
3.23359
 20
1.05066
 10
3.29318
 20
0.845545
 10
3.33978
 20
0.637096
 10
3.37319
 20
0.426132
 10
3.39329
 20
0.213488
 10
3.4
 20
0
 10
3.39329
 20
-0.213488
 10
3.37319
 20
-0.426132
 10
3.33978
 20
-0.637096
 10
3.29318
 20
-0.845545
 10
3.23359
 20
-1.05066
 10
3.16124
 20
-1.25162
 10
3.07641
 20
-1.44765
 10
2.97944
 20
-1.63796
 10
2.87071
 20
-1.82181
 10
2.75066
 20
-1.99847
 10
2.61974
 20
-2.16724
 10
2.47849
 20
-2.32746
 10
2.32746
 20
-2.47849
 10
2.16724
 20
-2.61974
 10
1.99847
 20
-2.75066
 10
1.82181
 20
-2.87071
 10
1.63796
 20
-2.97944
 10
1.44765
 20
-3.07641
 10
1.25162
 20
-3.16124
 10
1.05066
 20
-3.23359
 10
0.845545
 20
-3.29318
 10
0.637096
 20
-3.33978
 10
0.426132
 20
-3.37319
 10
0.213488
 20
-3.39329
 10
0
 20
-3.4
 10
-0.213488
 20
-3.39329
 10
-0.426132
 20
-3.37319
 10
-0.637096
 20
-3.33978
 10
-0.845545
 20
-3.29318
 10
-1.05066
 20
-3.23359
 10
-1.25162
 20
-3.16124
 10
-1.44765
 20
-3.07641
 10
-1.63796
 20
-2.97944
  0
ENDSEC
  0
EOF
