999
dxfrw 0.6.3
  0
SECTION
  2
HEADER
  9
$ACADVER
  1
AC1021
  9
$DWGCODEPAGE
  3
ANSI_1252
  9
$INSBASE
 10
0
 20
0
 30
0
  9
$EXTMIN
 10
-22.5
 20
-42.75124
 30
0
  9
$EXTMAX
 10
22.50000000000001
 20
68.5669
 30
0
  9
$LIMMIN
 10
0
 20
0
  9
$LIMMAX
 10
420
 20
297
  9
$ORTHOMODE
 70
    0
  9
$REGENMODE
 70
    1
  9
$FILLMODE
 70
    1
  9
$QTEXTMODE
 70
    0
  9
$MIRRTEXT
 70
    0
  9
$LTSCALE
 40
1
  9
$ATTMODE
 70
    0
  9
$TEXTSIZE
 40
2.5
  9
$TRACEWID
 40
15.68
  9
$TEXTSTYLE
  7
STANDARD
  9
$CLAYER
  8
mounting hole positions
  9
$CELTYPE
  6
BYLAYER
  9
$CECOLOR
 62
  256
  9
$CELTSCALE
 40
1
  9
$DISPSILH
 70
    0
  9
$DIMSCALE
 40
1
  9
$DIMASZ
 40
2.5
  9
$DIMEXO
 40
0.625
  9
$DIMDLI
 40
3.75
  9
$DIMRND
 40
0
  9
$DIMDLE
 40
0
  9
$DIMEXE
 40
1.25
  9
$DIMTP
 40
0
  9
$DIMTM
 40
0
  9
$DIMTXT
 40
2.5
  9
$DIMCEN
 40
2.5
  9
$DIMTSZ
 40
0
  9
$DIMTOL
 70
    0
  9
$DIMLIM
 70
    0
  9
$DIMTIH
 70
    0
  9
$DIMTOH
 70
    0
  9
$DIMSE1
 70
    0
  9
$DIMSE2
 70
    0
  9
$DIMTAD
 70
    1
  9
$DIMZIN
 70
    8
  9
$DIMBLK
  1

  9
$DIMASO
 70
    1
  9
$DIMSHO
 70
    1
  9
$DIMPOST
  1

  9
$DIMAPOST
  1

  9
$DIMALT
 70
    0
  9
$DIMALTD
 70
    3
  9
$DIMALTF
 40
0.03937
  9
$DIMLFAC
 40
1
  9
$DIMTOFL
 70
    1
  9
$DIMTVP
 40
0
  9
$DIMTIX
 70
    0
  9
$DIMSOXD
 70
    0
  9
$DIMSAH
 70
    0
  9
$DIMBLK1
  1

  9
$DIMBLK2
  1

  9
$DIMSTYLE
  2
Standard
  9
$DIMCLRD
 70
    0
  9
$DIMCLRE
 70
    0
  9
$DIMCLRT
 70
    0
  9
$DIMTFAC
 40
1
  9
$DIMGAP
 40
0.625
  9
$DIMJUST
 70
    0
  9
$DIMSD1
 70
    0
  9
$DIMSD2
 70
    0
  9
$DIMTOLJ
 70
    0
  9
$DIMTZIN
 70
    8
  9
$DIMALTZ
 70
    0
  9
$DIMALTTZ
 70
    0
  9
$DIMUPT
 70
    0
  9
$DIMDEC
 70
    2
  9
$DIMTDEC
 70
    2
  9
$DIMALTU
 70
    2
  9
$DIMALTTD
 70
    3
  9
$DIMTXSTY
  7
STANDARD
  9
$DIMAUNIT
 70
    0
  9
$DIMADEC
 70
    0
  9
$DIMALTRND
 40
0
  9
$DIMAZIN
 70
    0
  9
$DIMDSEP
 70
   44
  9
$DIMATFIT
 70
    3
  9
$DIMFRAC
 70
    0
  9
$DIMLDRBLK
  1
STANDARD
  9
$DIMLUNIT
 70
    2
  9
$DIMLWD
 70
   -2
  9
$DIMLWE
 70
   -2
  9
$DIMTMOVE
 70
    0
  9
$DIMFXL
 40
1
  9
$DIMFXLON
 70
    0
  9
$DIMJOGANG
 40
0.7854
  9
$DIMTFILL
 70
    0
  9
$DIMTFILLCLR
 70
    0
  9
$DIMARCSYM
 70
    0
  9
$DIMLTYPE
  6

  9
$DIMLTEX1
  6

  9
$DIMLTEX2
  6

  9
$LUNITS
 70
    2
  9
$LUPREC
 70
    4
  9
$SKETCHINC
 40
1
  9
$FILLETRAD
 40
0
  9
$AUNITS
 70
    0
  9
$AUPREC
 70
    2
  9
$MENU
  1
.
  9
$ELEVATION
 40
0
  9
$PELEVATION
 40
0
  9
$THICKNESS
 40
0
  9
$LIMCHECK
 70
    0
  9
$CHAMFERA
 40
0
  9
$CHAMFERB
 40
0
  9
$CHAMFERC
 40
0
  9
$CHAMFERD
 40
0
  9
$SKPOLY
 70
    0
  9
$USRTIMER
 70
    1
  9
$ANGBASE
 50
0
  9
$ANGDIR
 70
    0
  9
$PDMODE
 70
   34
  9
$PDSIZE
 40
0
  9
$PLINEWID
 40
0
  9
$SPLFRAME
 70
    0
  9
$SPLINETYPE
 70
    2
  9
$SPLINESEGS
 70
    8
  9
$HANDSEED
  5
20000
  9
$SURFTAB1
 70
    6
  9
$SURFTAB2
 70
    6
  9
$SURFTYPE
 70
    6
  9
$SURFU
 70
    6
  9
$SURFV
 70
    6
  9
$UCSBASE
  2

  9
$UCSNAME
  2

  9
$UCSORG
 10
0
 20
0
 30
0
  9
$UCSXDIR
 10
1
 20
0
 30
0
  9
$UCSYDIR
 10
0
 20
1
 30
0
  9
$UCSORTHOREF
  2

  9
$UCSORTHOVIEW
 70
    0
  9
$UCSORGTOP
 10
0
 20
0
 30
0
  9
$UCSORGBOTTOM
 10
0
 20
0
 30
0
  9
$UCSORGLEFT
 10
0
 20
0
 30
0
  9
$UCSORGRIGHT
 10
0
 20
0
 30
0
  9
$UCSORGFRONT
 10
0
 20
0
 30
0
  9
$UCSORGBACK
 10
0
 20
0
 30
0
  9
$PUCSBASE
  2

  9
$PUCSNAME
  2

  9
$PUCSORG
 10
0
 20
0
 30
0
  9
$PUCSXDIR
 10
1
 20
0
 30
0
  9
$PUCSYDIR
 10
0
 20
1
 30
0
  9
$PUCSORTHOREF
  2

  9
$PUCSORTHOVIEW
 70
    0
  9
$PUCSORGTOP
 10
0
 20
0
 30
0
  9
$PUCSORGBOTTOM
 10
0
 20
0
 30
0
  9
$PUCSORGLEFT
 10
0
 20
0
 30
0
  9
$PUCSORGRIGHT
 10
0
 20
0
 30
0
  9
$PUCSORGFRONT
 10
0
 20
0
 30
0
  9
$PUCSORGBACK
 10
0
 20
0
 30
0
  9
$USERI1
 70
    0
  9
$USERI2
 70
    0
  9
$USERI3
 70
    0
  9
$USERI4
 70
    0
  9
$USERI5
 70
    0
  9
$USERR1
 40
0
  9
$USERR2
 40
0
  9
$USERR3
 40
0
  9
$USERR4
 40
0
  9
$USERR5
 40
0
  9
$WORLDVIEW
 70
    1
  9
$SHADEDGE
 70
    3
  9
$SHADEDIF
 70
   70
  9
$TILEMODE
 70
    1
  9
$MAXACTVP
 70
   64
  9
$PINSBASE
 10
0
 20
0
 30
0
  9
$PLIMCHECK
 70
    0
  9
$PEXTMIN
 10
0
 20
0
 30
0
  9
$PEXTMAX
 10
0
 20
0
 30
0
  9
$GRIDMODE
 70
    1
  9
$SNAPSTYLE
 70
    0
  9
$PLIMMIN
 10
0
 20
0
  9
$PLIMMAX
 10
1189
 20
841
  9
$UNITMODE
 70
    0
  9
$VISRETAIN
 70
    1
  9
$PLINEGEN
 70
    0
  9
$PSLTSCALE
 70
    1
  9
$TREEDEPTH
 70
 3020
  9
$CMLSTYLE
  2
Standard
  9
$CMLJUST
 70
    0
  9
$CMLSCALE
 40
20
  9
$PROXYGRAPHICS
 70
    1
  9
$MEASUREMENT
 70
    1
  9
$CELWEIGHT
370
   -1
  9
$ENDCAPS
280
    0
  9
$JOINSTYLE
280
    0
  9
$LWDISPLAY
290
    0
  9
$INSUNITS
 70
    4
  9
$HYPERLINKBASE
  1

  9
$STYLESHEET
  1

  9
$XEDIT
290
    1
  9
$CEPSNTYPE
380
    0
  9
$PSTYLEMODE
290
    1
  9
$EXTNAMES
290
    1
  9
$PSVPSCALE
 40
1
  9
$OLESTARTUP
290
    0
  9
$SORTENTS
280
  127
  9
$INDEXCTL
280
    0
  9
$HIDETEXT
280
    1
  9
$XCLIPFRAME
290
    0
  9
$HALOGAP
280
    0
  9
$OBSCOLOR
 70
  257
  9
$OBSLTYPE
280
    0
  9
$INTERSECTIONDISPLAY
280
    0
  9
$INTERSECTIONCOLOR
 70
  257
  9
$DIMASSOC
280
    1
  9
$PROJECTNAME
  1

  9
$CAMERADISPLAY
290
    0
  9
$LENSLENGTH
 40
50
  9
$CAMERAHEIGHT
 40
0
  9
$STEPSPERSEC
 40
2
  9
$STEPSIZE
 40
50
  9
$3DDWFPREC
 40
2
  9
$PSOLWIDTH
 40
5
  9
$PSOLHEIGHT
 40
80
  9
$LOFTANG1
 40
1.570796326794897
  9
$LOFTANG2
 40
1.570796326794897
  9
$LOFTMAG1
 40
0
  9
$LOFTMAG2
 40
0
  9
$LOFTPARAM
 70
    7
  9
$LOFTNORMALS
280
    1
  9
$LATITUDE
 40
1
  9
$LONGITUDE
 40
1
  9
$NORTHDIRECTION
 40
0
  9
$TIMEZONE
 70
-8000
  9
$LIGHTGLYPHDISPLAY
280
    1
  9
$TILEMODELIGHTSYNCH
280
    1
  9
$SOLIDHIST
280
    1
  9
$SHOWHIST
280
    1
  9
$DWFFRAME
280
    2
  9
$DGNFRAME
280
    0
  9
$REALWORLDSCALE
290
    1
  9
$INTERFERECOLOR
 62
    1
  9
$CSHADOW
280
    0
  9
$SHADOWPLANELOCATION
 40
0
  0
ENDSEC
  0
SECTION
  2
CLASSES
  0
ENDSEC
  0
SECTION
  2
TABLES
  0
TABLE
  2
VPORT
  5
8
330
0
100
AcDbSymbolTable
 70
    1
  0
VPORT
  5
31
330
2
100
AcDbSymbolTableRecord
100
AcDbViewportTableRecord
  2
*ACTIVE
 70
    0
 10
0
 20
0
 11
1
 21
1
 12
30.29098662057574
 22
-0.4154192450821816
 13
0
 23
0
 14
10
 24
10
 15
10
 25
10
 16
0
 26
0
 36
1
 17
0
 27
0
 37
0
 40
56.70472695371779
 41
1.418803418803419
 42
50
 43
0
 44
0
 50
0
 51
0
 71
    0
 72
  100
 73
    1
 74
    3
 75
    0
 76
    1
 77
    0
 78
    0
281
    0
 65
    1
110
0
120
0
130
0
111
1
121
0
131
0
112
0
122
1
132
0
 79
    0
146
0
348
10020
 60
    7
 61
    5
292
1
282
    1
141
0
142
0
 63
  250
421
3358443
  0
ENDTAB
  0
TABLE
  2
LTYPE
  5
5
330
0
100
AcDbSymbolTable
 70
    4
  0
LTYPE
  5
14
330
5
100
AcDbSymbolTableRecord
100
AcDbLinetypeTableRecord
  2
ByBlock
 70
    0
  3

 72
   65
 73
    0
 40
0
  0
LTYPE
  5
15
330
5
100
AcDbSymbolTableRecord
100
AcDbLinetypeTableRecord
  2
ByLayer
 70
    0
  3

 72
   65
 73
    0
 40
0
  0
LTYPE
  5
16
330
5
100
AcDbSymbolTableRecord
100
AcDbLinetypeTableRecord
  2
Continuous
 70
    0
  3
Solid line
 72
   65
 73
    0
 40
0
  0
LTYPE
  5
32
330
5
100
AcDbSymbolTableRecord
100
AcDbLinetypeTableRecord
  2
DOT
 70
    0
  3
Dot . . . . . . . . . . . . . . . . . . . . . .
 72
   65
 73
    2
 40
6.35
 49
0
 74
    0
 49
-6.35
 74
    0
  0
LTYPE
  5
33
330
5
100
AcDbSymbolTableRecord
100
AcDbLinetypeTableRecord
  2
DOTTINY
 70
    0
  3
Dot (.15x) .....................................
 72
   65
 73
    2
 40
0.9525
 49
0
 74
    0
 49
-0.9525
 74
    0
  0
LTYPE
  5
34
330
5
100
AcDbSymbolTableRecord
100
AcDbLinetypeTableRecord
  2
DOT2
 70
    0
  3
Dot (.5x) .....................................
 72
   65
 73
    2
 40
3.175
 49
0
 74
    0
 49
-3.175
 74
    0
  0
LTYPE
  5
35
330
5
100
AcDbSymbolTableRecord
100
AcDbLinetypeTableRecord
  2
DOTX2
 70
    0
  3
Dot (2x) .  .  .  .  .  .  .  .  .  .  .  .  .
 72
   65
 73
    2
 40
12.7
 49
0
 74
    0
 49
-12.7
 74
    0
  0
LTYPE
  5
36
330
5
100
AcDbSymbolTableRecord
100
AcDbLinetypeTableRecord
  2
DASHED
 70
    0
  3
Dashed _ _ _ _ _ _ _ _ _ _ _ _ _ _ _ _ _
 72
   65
 73
    2
 40
19.05
 49
12.7
 74
    0
 49
-6.35
 74
    0
  0
LTYPE
  5
37
330
5
100
AcDbSymbolTableRecord
100
AcDbLinetypeTableRecord
  2
DASHEDTINY
 70
    0
  3
Dashed (.15x) _ _ _ _ _ _ _ _ _ _ _ _ _ _ _ _ _
 72
   65
 73
    2
 40
2.8575
 49
1.905
 74
    0
 49
-0.9525
 74
    0
  0
LTYPE
  5
38
330
5
100
AcDbSymbolTableRecord
100
AcDbLinetypeTableRecord
  2
DASHED2
 70
    0
  3
Dashed (.5x) _ _ _ _ _ _ _ _ _ _ _ _ _ _ _ _ _
 72
   65
 73
    2
 40
9.524999999999999
 49
6.35
 74
    0
 49
-3.175
 74
    0
  0
LTYPE
  5
39
330
5
100
AcDbSymbolTableRecord
100
AcDbLinetypeTableRecord
  2
DASHEDX2
 70
    0
  3
Dashed (2x) ____  ____  ____  ____  ____  ___
 72
   65
 73
    2
 40
38.09999999999999
 49
25.4
 74
    0
 49
-12.7
 74
    0
  0
LTYPE
  5
3A
330
5
100
AcDbSymbolTableRecord
100
AcDbLinetypeTableRecord
  2
DASHDOT
 70
    0
  3
Dash dot __ . __ . __ . __ . __ . __ . __ . __
 72
   65
 73
    4
 40
25.4
 49
12.7
 74
    0
 49
-6.35
 74
    0
 49
0
 74
    0
 49
-6.35
 74
    0
  0
LTYPE
  5
3B
330
5
100
AcDbSymbolTableRecord
100
AcDbLinetypeTableRecord
  2
DASHDOTTINY
 70
    0
  3
Dash dot (.15x) _._._._._._._._._._._._._._._.
 72
   65
 73
    4
 40
3.81
 49
1.905
 74
    0
 49
-0.9525
 74
    0
 49
0
 74
    0
 49
-0.9525
 74
    0
  0
LTYPE
  5
3C
330
5
100
AcDbSymbolTableRecord
100
AcDbLinetypeTableRecord
  2
DASHDOT2
 70
    0
  3
Dash dot (.5x) _._._._._._._._._._._._._._._.
 72
   65
 73
    4
 40
12.7
 49
6.35
 74
    0
 49
-3.175
 74
    0
 49
0
 74
    0
 49
-3.175
 74
    0
  0
LTYPE
  5
3D
330
5
100
AcDbSymbolTableRecord
100
AcDbLinetypeTableRecord
  2
DASHDOTX2
 70
    0
  3
Dash dot (2x) ____  .  ____  .  ____  .  ___
 72
   65
 73
    4
 40
50.8
 49
25.4
 74
    0
 49
-12.7
 74
    0
 49
0
 74
    0
 49
-12.7
 74
    0
  0
LTYPE
  5
3E
330
5
100
AcDbSymbolTableRecord
100
AcDbLinetypeTableRecord
  2
DIVIDE
 70
    0
  3
Divide ____ . . ____ . . ____ . . ____ . . ____
 72
   65
 73
    6
 40
31.75
 49
12.7
 74
    0
 49
-6.35
 74
    0
 49
0
 74
    0
 49
-6.35
 74
    0
 49
0
 74
    0
 49
-6.35
 74
    0
  0
LTYPE
  5
3F
330
5
100
AcDbSymbolTableRecord
100
AcDbLinetypeTableRecord
  2
DIVIDETINY
 70
    0
  3
Divide (.15x) __..__..__..__..__..__..__..__.._
 72
   65
 73
    6
 40
4.7625
 49
1.905
 74
    0
 49
-0.9525
 74
    0
 49
0
 74
    0
 49
-0.9525
 74
    0
 49
0
 74
    0
 49
-0.9525
 74
    0
  0
LTYPE
  5
40
330
5
100
AcDbSymbolTableRecord
100
AcDbLinetypeTableRecord
  2
DIVIDE2
 70
    0
  3
Divide (.5x) __..__..__..__..__..__..__..__.._
 72
   65
 73
    6
 40
15.875
 49
6.35
 74
    0
 49
-3.175
 74
    0
 49
0
 74
    0
 49
-3.175
 74
    0
 49
0
 74
    0
 49
-3.175
 74
    0
  0
LTYPE
  5
41
330
5
100
AcDbSymbolTableRecord
100
AcDbLinetypeTableRecord
  2
DIVIDEX2
 70
    0
  3
Divide (2x) ________  .  .  ________  .  .  _
 72
   65
 73
    6
 40
63.5
 49
25.4
 74
    0
 49
-12.7
 74
    0
 49
0
 74
    0
 49
-12.7
 74
    0
 49
0
 74
    0
 49
-12.7
 74
    0
  0
LTYPE
  5
42
330
5
100
AcDbSymbolTableRecord
100
AcDbLinetypeTableRecord
  2
BORDER
 70
    0
  3
Border __ __ . __ __ . __ __ . __ __ . __ __ .
 72
   65
 73
    6
 40
44.45
 49
12.7
 74
    0
 49
-6.35
 74
    0
 49
12.7
 74
    0
 49
-6.35
 74
    0
 49
0
 74
    0
 49
-6.35
 74
    0
  0
LTYPE
  5
43
330
5
100
AcDbSymbolTableRecord
100
AcDbLinetypeTableRecord
  2
BORDERTINY
 70
    0
  3
Border (.15x) __.__.__.__.__.__.__.__.__.__.__.
 72
   65
 73
    6
 40
6.6675
 49
1.905
 74
    0
 49
-0.9525
 74
    0
 49
1.905
 74
    0
 49
-0.9525
 74
    0
 49
0
 74
    0
 49
-0.9525
 74
    0
  0
LTYPE
  5
44
330
5
100
AcDbSymbolTableRecord
100
AcDbLinetypeTableRecord
  2
BORDER2
 70
    0
  3
Border (.5x) __.__.__.__.__.__.__.__.__.__.__.
 72
   65
 73
    6
 40
22.225
 49
6.35
 74
    0
 49
-3.175
 74
    0
 49
6.35
 74
    0
 49
-3.175
 74
    0
 49
0
 74
    0
 49
-3.175
 74
    0
  0
LTYPE
  5
45
330
5
100
AcDbSymbolTableRecord
100
AcDbLinetypeTableRecord
  2
BORDERX2
 70
    0
  3
Border (2x) ____  ____  .  ____  ____  .  ___
 72
   65
 73
    6
 40
88.89999999999999
 49
25.4
 74
    0
 49
-12.7
 74
    0
 49
25.4
 74
    0
 49
-12.7
 74
    0
 49
0
 74
    0
 49
-12.7
 74
    0
  0
LTYPE
  5
46
330
5
100
AcDbSymbolTableRecord
100
AcDbLinetypeTableRecord
  2
CENTER
 70
    0
  3
Center ____ _ ____ _ ____ _ ____ _ ____ _ ____
 72
   65
 73
    4
 40
50.8
 49
31.75
 74
    0
 49
-6.35
 74
    0
 49
6.35
 74
    0
 49
-6.35
 74
    0
  0
LTYPE
  5
47
330
5
100
AcDbSymbolTableRecord
100
AcDbLinetypeTableRecord
  2
CENTERTINY
 70
    0
  3
Center (.15x) ___ _ ___ _ ___ _ ___ _ ___ _ ___
 72
   65
 73
    4
 40
7.619999999999999
 49
4.7625
 74
    0
 49
-0.9525
 74
    0
 49
0.9525
 74
    0
 49
-0.9525
 74
    0
  0
LTYPE
  5
48
330
5
100
AcDbSymbolTableRecord
100
AcDbLinetypeTableRecord
  2
CENTER2
 70
    0
  3
Center (.5x) ___ _ ___ _ ___ _ ___ _ ___ _ ___
 72
   65
 73
    4
 40
28.575
 49
19.05
 74
    0
 49
-3.175
 74
    0
 49
3.175
 74
    0
 49
-3.175
 74
    0
  0
LTYPE
  5
49
330
5
100
AcDbSymbolTableRecord
100
AcDbLinetypeTableRecord
  2
CENTERX2
 70
    0
  3
Center (2x) ________  __  ________  __  _____
 72
   65
 73
    4
 40
101.6
 49
63.5
 74
    0
 49
-12.7
 74
    0
 49
12.7
 74
    0
 49
-12.7
 74
    0
  0
ENDTAB
  0
TABLE
  2
LAYER
  5
2
330
0
100
AcDbSymbolTable
 70
    1
  0
LAYER
  5
10
330
2
100
AcDbSymbolTableRecord
100
AcDbLayerTableRecord
  2
0
 70
    1
 62
    7
  6
CONTINUOUS
370
   -3
390
F
  0
LAYER
  5
4A
330
2
100
AcDbSymbolTableRecord
100
AcDbLayerTableRecord
  2
anotations
 70
    1
 62
    6
  6
CONTINUOUS
370
    0
390
F
  0
LAYER
  5
4B
330
2
100
AcDbSymbolTableRecord
100
AcDbLayerTableRecord
  2
base base
 70
    0
 62
    1
  6
CONTINUOUS
370
    0
390
F
  0
LAYER
  5
4C
330
2
100
AcDbSymbolTableRecord
100
AcDbLayerTableRecord
  2
bearings
 70
    1
 62
    4
  6
CONTINUOUS
370
    0
390
F
  0
LAYER
  5
4D
330
2
100
AcDbSymbolTableRecord
100
AcDbLayerTableRecord
  2
building blocks
 70
    1
 62
  136
420
32896
  6
CONTINUOUS
370
    0
390
F
  0
LAYER
  5
4E
330
2
100
AcDbSymbolTableRecord
100
AcDbLayerTableRecord
  2
building blocks base
 70
    1
 62
    4
  6
CONTINUOUS
370
    0
390
F
  0
LAYER
  5
4F
330
2
100
AcDbSymbolTableRecord
100
AcDbLayerTableRecord
  2
building blocks cover
 70
    0
 62
    6
  6
CONTINUOUS
370
    0
390
F
  0
LAYER
  5
50
330
2
100
AcDbSymbolTableRecord
100
AcDbLayerTableRecord
  2
exact outline
 70
    1
 62
    5
  6
CONTINUOUS
370
    0
390
F
  0
LAYER
  5
51
330
2
100
AcDbSymbolTableRecord
100
AcDbLayerTableRecord
  2
guides
 70
    1
 62
    3
  6
CONTINUOUS
370
    0
390
F
1001
LibreCad
1070
    1
  0
LAYER
  5
52
330
2
100
AcDbSymbolTableRecord
100
AcDbLayerTableRecord
  2
guides1
 70
    1
 62
    2
  6
CONTINUOUS
370
    0
390
F
1001
LibreCad
1070
    1
  0
LAYER
  5
53
330
2
100
AcDbSymbolTableRecord
100
AcDbLayerTableRecord
  2
mirrored_offset_outline
 70
    0
 62
    7
  6
CONTINUOUS
370
    0
390
F
  0
LAYER
  5
54
330
2
100
AcDbSymbolTableRecord
100
AcDbLayerTableRecord
  2
mounting hole positions
 70
    0
 62
    3
  6
CONTINUOUS
370
    0
390
F
1001
LibreCad
1070
    1
  0
LAYER
  5
55
330
2
100
AcDbSymbolTableRecord
100
AcDbLayerTableRecord
  2
offset outline
 70
    1
 62
    4
  6
CONTINUOUS
370
    0
390
F
  0
LAYER
  5
56
330
2
100
AcDbSymbolTableRecord
100
AcDbLayerTableRecord
  2
offset_0_2
 70
    1
 62
  136
420
32896
  6
CONTINUOUS
370
    0
390
F
  0
LAYER
  5
57
330
2
100
AcDbSymbolTableRecord
100
AcDbLayerTableRecord
  2
offset_1_0
 70
    1
 62
   56
420
8421376
  6
CONTINUOUS
370
    0
390
F
  0
LAYER
  5
58
330
2
100
AcDbSymbolTableRecord
100
AcDbLayerTableRecord
  2
thrust bearing base base
 70
    1
 62
    2
  6
CONTINUOUS
370
    0
390
F
  0
LAYER
  5
59
330
2
100
AcDbSymbolTableRecord
100
AcDbLayerTableRecord
  2
version 0
 70
    1
 62
  253
420
10526884
  6
CONTINUOUS
370
    0
390
F
  0
LAYER
  5
5A
330
2
100
AcDbSymbolTableRecord
100
AcDbLayerTableRecord
  2
washer base base
 70
    1
 62
   56
420
8421376
  6
CONTINUOUS
370
    0
390
F
  0
ENDTAB
  0
TABLE
  2
STYLE
  5
3
330
0
100
AcDbSymbolTable
 70
    3
  0
STYLE
  5
5B
330
2
100
AcDbSymbolTableRecord
100
AcDbTextStyleTableRecord
  2
STANDARD
 70
    0
 40
0
 41
1
 50
0
 71
    0
 42
1
  3
STANDARD
  4

  0
ENDTAB
  0
TABLE
  2
VIEW
  5
6
330
0
100
AcDbSymbolTable
 70
    0
  0
ENDTAB
  0
TABLE
  2
UCS
  5
7
330
0
100
AcDbSymbolTable
 70
    0
  0
ENDTAB
  0
TABLE
  2
APPID
  5
9
330
0
100
AcDbSymbolTable
 70
    1
  0
APPID
  5
12
330
9
100
AcDbSymbolTableRecord
100
AcDbRegAppTableRecord
  2
ACAD
 70
    0
  0
APPID
  5
5C
330
9
100
AcDbSymbolTableRecord
100
AcDbRegAppTableRecord
  2
LibreCad
 70
    0
  0
ENDTAB
  0
TABLE
  2
DIMSTYLE
  5
A
330
0
100
AcDbSymbolTable
 70
    1
100
AcDbDimStyleTable
 71
    1
  0
DIMSTYLE
105
5D
330
A
100
AcDbSymbolTableRecord
100
AcDbDimStyleTableRecord
  2
Standard
 70
    0
 40
1
 41
2.5
 42
0.625
 43
0.38
 44
1.25
 45
0
 46
0
 47
0
 48
0
 49
1
140
2.5
141
0.09
142
0
143
25.4
144
1
145
0
146
1
147
0.625
148
0
 71
    0
 72
    0
 73
    0
 74
    1
 75
    0
 76
    0
 77
    0
 78
    8
 79
    0
170
    0
171
    2
172
    0
173
    0
174
    0
175
    0
176
    0
177
    0
178
    0
179
    0
271
    2
272
    4
273
    2
274
    2
275
    0
276
    0
277
    2
278
   44
279
    0
280
    0
281
    0
282
    0
283
    1
284
    0
285
    0
286
    0
288
    0
289
    3
340
STANDARD
341

371
   -2
372
   -2
  0
ENDTAB
  0
TABLE
  2
BLOCK_RECORD
  5
1
330
0
100
AcDbSymbolTable
 70
    2
  0
BLOCK_RECORD
  5
1F
330
1
100
AcDbSymbolTableRecord
100
AcDbBlockTableRecord
  2
*Model_Space
 70
    0
280
    1
281
    0
  0
BLOCK_RECORD
  5
1E
330
1
100
AcDbSymbolTableRecord
100
AcDbBlockTableRecord
  2
*Paper_Space
 70
    0
280
    1
281
    0
  0
BLOCK_RECORD
  5
5E
330
1
100
AcDbSymbolTableRecord
100
AcDbBlockTableRecord
  2
rudderPedalMaker c profile full assembly 01
 70
    0
280
    1
281
    0
  0
ENDTAB
  0
ENDSEC
  0
SECTION
  2
BLOCKS
  0
BLOCK
  5
20
330
1F
100
AcDbEntity
  8
0
100
AcDbBlockBegin
  2
*Model_Space
 70
    0
 10
0
 20
0
 30
0
  3
*Model_Space
  1

  0
ENDBLK
  5
21
330
1F
100
AcDbEntity
  8
0
100
AcDbBlockEnd
  0
BLOCK
  5
1C
330
1B
100
AcDbEntity
  8
0
100
AcDbBlockBegin
  2
*Paper_Space
 70
    0
 10
0
 20
0
 30
0
  3
*Paper_Space
  1

  0
ENDBLK
  5
1D
330
1F
100
AcDbEntity
  8
0
100
AcDbBlockEnd
  0
BLOCK
  5
5F
330
5E
100
AcDbEntity
  8
0
100
AcDbBlockBegin
  2
rudderPedalMaker c profile full assembly 01
 70
    0
 10
0
 20
0
  3
rudderPedalMaker c profile full assembly 01
  1

  0
LWPOLYLINE
  5
61
100
AcDbEntity
  8
0
  6
ByLayer
 62
  256
370
   -1
100
AcDbPolyline
 90
   72
 70
    1
 43
0
 10
-22.5
 20
-34.3825
 10
-3.89828
 20
-34.3825
 10
-3.89829
 20
-32.0698
 10
-3.89829
 20
-30.9123
 10
-10.9952
 20
-30.9123
 10
-10.9952
 20
-23.9123
 10
-8.66025
 20
-23.9123
 10
-8.66025
 20
-22.329
 10
-8.66025
 20
-14.8565
 10
-15.2396
 20
-14.8565
 10
-15.4095
 20
-14.6702
 10
-15.4416
 20
-14.6343
 10
-15.7393
 20
-14.3004
 10
-15.7819
 20
-14.252
 10
-15.839
 20
-14.187
 10
-15.8915
 20
-14.1262
 10
-15.9376
 20
-14.0728
 10
-15.9891
 20
-14.012
 10
-16.035
 20
-13.9579
 10
-16.0856
 20
-13.8971
 10
-16.1312
 20
-13.8423
 10
-16.1731
 20
-13.791
 10
-16.2262
 20
-13.726
 10
-16.2751
 20
-13.6649
 10
-16.3199
 20
-13.6089
 10
-16.3612
 20
-13.5563
 10
-16.4123
 20
-13.4912
 10
-16.4595
 20
-13.4298
 10
-16.5034
 20
-13.3728
 10
-16.5498
 20
-13.3112
 10
-16.5931
 20
-13.2537
 10
-14.5042
 20
-11.5882
 10
-12.6908
 20
-10.1424
 10
-10.9952
 20
-10.1424
 10
-10.9952
 20
-4.38437
 10
0
 20
-4.38437
 10
0
 20
4.38437
 10
-10.9952
 20
4.38437
 10
-10.9952
 20
10.1424
 10
-12.6908
 20
10.1424
 10
-14.5042
 20
11.5882
 10
-16.5931
 20
13.2537
 10
-16.5498
 20
13.3112
 10
-16.5034
 20
13.3728
 10
-16.4595
 20
13.4298
 10
-16.4123
 20
13.4912
 10
-16.3612
 20
13.5563
 10
-16.3199
 20
13.6089
 10
-16.2751
 20
13.6649
 10
-16.2262
 20
13.726
 10
-16.1731
 20
13.791
 10
-16.1312
 20
13.8423
 10
-16.0856
 20
13.8971
 10
-16.035
 20
13.9579
 10
-15.9891
 20
14.012
 10
-15.9376
 20
14.0728
 10
-15.8915
 20
14.1262
 10
-15.839
 20
14.187
 10
-15.7819
 20
14.252
 10
-15.7393
 20
14.3004
 10
-15.4416
 20
14.6343
 10
-15.4095
 20
14.6702
 10
-15.2396
 20
14.8565
 10
-8.66025
 20
14.8565
 10
-8.66025
 20
16.4398
 10
-8.66025
 20
16.9277
 10
-8.66025
 20
23.9123
 10
-10.9952
 20
23.9123
 10
-10.9952
 20
30.9123
 10
-3.89829
 20
30.9123
 10
-3.89829
 20
34.3825
 10
-22.5
 20
34.3825
  0
LWPOLYLINE
  5
62
100
AcDbEntity
  8
0
  6
ByLayer
 62
  256
370
   -1
100
AcDbPolyline
 90
    5
 70
    1
 43
0
 10
-3.09864
 20
-33.2268
 10
-3.09864
 20
-34.3825
 10
0
 20
-34.3825
 10
0
 20
-30.9123
 10
-3.09864
 20
-30.9123
  0
LWPOLYLINE
  5
63
100
AcDbEntity
  8
0
  6
ByLayer
 62
  256
370
   -1
100
AcDbPolyline
 90
    4
 70
    1
 43
0
 10
-3.09864
 20
30.9123
 10
0
 20
30.9123
 10
0
 20
34.3825
 10
-3.09864
 20
34.3825
  0
ENDBLK
  5
60
330
5E
100
AcDbEntity
  8
0
100
AcDbBlockEnd
  0
ENDSEC
  0
SECTION
  2
ENTITIES
  0
LINE
  5
64
100
AcDbEntity
  8
guides
  6
ByLayer
 62
  256
370
   -1
100
AcDbLine
 10
11.0048
 20
23.91229999999999
 11
11.0048
 21
30.91229999999999
  0
LINE
  5
65
100
AcDbEntity
  8
guides
  6
ByLayer
 62
  256
370
   -1
100
AcDbLine
 10
-10.9952
 20
23.9123
 11
-3.898290000000001
 21
23.9123
  0
LINE
  5
66
100
AcDbEntity
  8
guides
  6
ByLayer
 62
  256
370
   -1
100
AcDbLine
 10
-10.9952
 20
30.9123
 11
-3.898290000000001
 21
30.9123
  0
LINE
  5
67
100
AcDbEntity
  8
guides
  6
ByLayer
 62
  256
370
   -1
100
AcDbLine
 10
2.143131898507868e-15
 20
11.38437
 11
-10.9952
 21
11.38437
  0
LINE
  5
68
100
AcDbEntity
  8
guides
  6
ByLayer
 62
  256
370
   -1
100
AcDbLine
 10
8.572527594031474e-16
 20
4.384370000000001
 11
-10.9952
 21
4.384370000000001
  0
LINE
  5
69
100
AcDbEntity
  8
guides
  6
ByLayer
 62
  256
370
   -1
100
AcDbLine
 10
-10.9952
 20
-11.38437
 11
-1.285879139104721e-15
 21
-11.38437
  0
LINE
  5
6A
100
AcDbEntity
  8
guides
  6
ByLayer
 62
  256
370
   -1
100
AcDbLine
 10
-10.9952
 20
-4.384370000000001
 11
-8.572527594031472e-16
 21
-4.384370000000001
  0
LINE
  5
6B
100
AcDbEntity
  8
guides
  6
ByLayer
 62
  256
370
   -1
100
AcDbLine
 10
-3.898289999999998
 20
-23.9123
 11
-10.9952
 21
-23.9123
  0
LINE
  5
6C
100
AcDbEntity
  8
guides
  6
ByLayer
 62
  256
370
   -1
100
AcDbLine
 10
-3.898289999999999
 20
-30.9123
 11
-10.9952
 21
-30.9123
  0
LINE
  5
6D
100
AcDbEntity
  8
bearings
  6
ByLayer
 62
  256
370
   -1
100
AcDbLine
 10
-10.9952
 20
30.9123
 11
11.0048
 21
30.9123
  0
LINE
  5
6E
100
AcDbEntity
  8
bearings
  6
ByLayer
 62
  256
370
   -1
100
AcDbLine
 10
11.0048
 20
30.9123
 11
11.0048
 21
23.9123
  0
LINE
  5
6F
100
AcDbEntity
  8
bearings
  6
ByLayer
 62
  256
370
   -1
100
AcDbLine
 10
11.0048
 20
23.9123
 11
-10.9952
 21
23.9123
  0
LINE
  5
70
100
AcDbEntity
  8
bearings
  6
ByLayer
 62
  256
370
   -1
100
AcDbLine
 10
-10.9952
 20
23.9123
 11
-10.9952
 21
30.9123
  0
LINE
  5
71
100
AcDbEntity
  8
bearings
  6
ByLayer
 62
  256
370
   -1
100
AcDbLine
 10
-10.9952
 20
4.384370000000001
 11
-10.9952
 21
11.38437
  0
LINE
  5
72
100
AcDbEntity
  8
bearings
  6
ByLayer
 62
  256
370
   -1
100
AcDbLine
 10
-10.9952
 20
11.38437
 11
11.0048
 21
11.38437
  0
LINE
  5
73
100
AcDbEntity
  8
bearings
  6
ByLayer
 62
  256
370
   -1
100
AcDbLine
 10
11.0048
 20
11.38437
 11
11.0048
 21
4.384370000000001
  0
LINE
  5
74
100
AcDbEntity
  8
bearings
  6
ByLayer
 62
  256
370
   -1
100
AcDbLine
 10
11.0048
 20
4.384370000000001
 11
-10.9952
 21
4.384370000000001
  0
LINE
  5
75
100
AcDbEntity
  8
bearings
  6
ByLayer
 62
  256
370
   -1
100
AcDbLine
 10
-10.9952
 20
-4.38437
 11
11.0048
 21
-4.384370000000001
  0
LINE
  5
76
100
AcDbEntity
  8
bearings
  6
ByLayer
 62
  256
370
   -1
100
AcDbLine
 10
11.0048
 20
-4.384370000000001
 11
11.0048
 21
-11.38437
  0
LINE
  5
77
100
AcDbEntity
  8
bearings
  6
ByLayer
 62
  256
370
   -1
100
AcDbLine
 10
11.0048
 20
-30.9123
 11
11.0048
 21
-23.9123
  0
LINE
  5
78
100
AcDbEntity
  8
bearings
  6
ByLayer
 62
  256
370
   -1
100
AcDbLine
 10
-10.9952
 20
-4.384369999999999
 11
-10.9952
 21
-11.38437
  0
LINE
  5
79
100
AcDbEntity
  8
bearings
  6
ByLayer
 62
  256
370
   -1
100
AcDbLine
 10
-10.9952
 20
-23.9123
 11
-10.9952
 21
-30.9123
  0
LINE
  5
7A
100
AcDbEntity
  8
bearings
  6
ByLayer
 62
  256
370
   -1
100
AcDbLine
 10
-10.9952
 20
-23.9123
 11
11.0048
 21
-23.9123
  0
LINE
  5
7B
100
AcDbEntity
  8
bearings
  6
ByLayer
 62
  256
370
   -1
100
AcDbLine
 10
11.0048
 20
-30.9123
 11
-10.9952
 21
-30.9123
  0
LINE
  5
7C
100
AcDbEntity
  8
bearings
  6
ByLayer
 62
  256
370
   -1
100
AcDbLine
 10
-10.9952
 20
-11.38437
 11
11.0048
 21
-11.38437
  0
MTEXT
  5
7D
100
AcDbEntity
  8
anotations
  6
ByLayer
 62
  256
370
   -1
100
AcDbMText
 10
7.928717350122107
 20
-7.928717350122107
 30
0
 40
5
 41
26.66666666666666
 71
    5
 72
    1
  1
BEARING
  7
STANDARD
210
0
220
0
230
1
 50
0
 73
    2
 44
1
  0
MTEXT
  5
7E
100
AcDbEntity
  8
anotations
  6
ByLayer
 62
  256
370
   -1
100
AcDbMText
 10
7.733545019852574
 20
-27.40232487349337
 30
0
 40
5
 41
26.66666666666666
 71
    5
 72
    1
  1
BEARING
  7
STANDARD
210
0
220
0
230
1
 50
0
 73
    2
 44
1
  0
MTEXT
  5
7F
100
AcDbEntity
  8
anotations
  6
ByLayer
 62
  256
370
   -1
100
AcDbMText
 10
7.75268294308134
 20
7.868394628798972
 30
0
 40
5
 41
26.66666666666666
 71
    5
 72
    1
  1
BEARING
  7
STANDARD
210
0
220
0
230
1
 50
0
 73
    2
 44
1
  0
MTEXT
  5
80
100
AcDbEntity
  8
anotations
  6
ByLayer
 62
  256
370
   -1
100
AcDbMText
 10
7.794439075127
 20
27.46321892876779
 30
0
 40
5
 41
26.66666666666666
 71
    5
 72
    1
  1
BEARING
  7
STANDARD
210
0
220
0
230
1
 50
0
 73
    2
 44
1
  0
MTEXT
  5
81
100
AcDbEntity
  8
anotations
  6
ByLayer
 62
  256
370
   -1
100
AcDbMText
 10
0
 20
13.38273098032181
 30
0
 40
3
 41
8.333333333333659
 71
    5
 72
    1
  1
Gear
  7
STANDARD
210
0
220
0
230
1
 50
0
 73
    2
 44
1
  0
MTEXT
  5
82
100
AcDbEntity
  8
anotations
  6
ByLayer
 62
  256
370
   -1
100
AcDbMText
 10
0
 20
-13.3317773342215
 30
0
 40
3
 41
8.333333333333659
 71
    5
 72
    1
  1
Gear
  7
STANDARD
210
0
220
0
230
1
 50
0
 73
    2
 44
1
  0
MTEXT
  5
83
100
AcDbEntity
  8
anotations
  6
ByLayer
 62
  256
370
   -1
100
AcDbMText
 10
5.825424073787145
 20
-19.12943310716589
 30
0
 40
7
 41
23.33333333333366
 71
    5
 72
    1
  1
Pedal
  7
STANDARD
210
0
220
0
230
1
 50
0
 73
    2
 44
1
  0
MTEXT
  5
84
100
AcDbEntity
  8
anotations
  6
ByLayer
 62
  256
370
   -1
100
AcDbMText
 10
5.131003279776976
 20
19.86619218580316
 30
0
 40
7
 41
23.33333333333366
 71
    5
 72
    1
  1
Pedal
  7
STANDARD
210
0
220
0
230
1
 50
0
 73
    2
 44
1
  0
LINE
  5
85
100
AcDbEntity
  8
guides
  6
ByLayer
 62
  256
370
   -1
100
AcDbLine
 10
-16.5931
 20
13.2537
 11
-16.5931
 21
43.2537
  0
LWPOLYLINE
  5
86
100
AcDbEntity
  8
version 0
  6
ByLayer
 62
  256
370
   -1
100
AcDbPolyline
 90
   79
 70
    1
 43
0
 10
-22.5
 20
-35
 10
0
 20
-35
 10
0
 20
-30.9123
 10
-3.09864
 20
-30.9123
 10
-3.09864
 20
-34.3844
 10
-3.89829
 20
-34.3844
 10
-3.89829
 20
-30.9123
 10
-10.9952
 20
-30.9123
 10
-10.9952
 20
-23.9123
 10
-8.66025
 20
-23.9123
 10
-8.66025
 20
-22.329
 10
-8.66025
 20
-14.8565
 10
-15.2396
 20
-14.8565
 10
-15.4095
 20
-14.6702
 10
-15.4416
 20
-14.6343
 10
-15.7393
 20
-14.3004
 10
-15.7819
 20
-14.252
 10
-15.839
 20
-14.187
 10
-15.8915
 20
-14.1262
 10
-15.9376
 20
-14.0728
 10
-15.9891
 20
-14.012
 10
-16.035
 20
-13.9579
 10
-16.0856
 20
-13.8971
 10
-16.1312
 20
-13.8423
 10
-16.1731
 20
-13.791
 10
-16.2262
 20
-13.726
 10
-16.2751
 20
-13.6649
 10
-16.3199
 20
-13.6089
 10
-16.3612
 20
-13.5563
 10
-16.4123
 20
-13.4912
 10
-16.4595
 20
-13.4298
 10
-16.5034
 20
-13.3728
 10
-16.5498
 20
-13.3112
 10
-16.5931
 20
-13.2537
 10
-14.5042
 20
-11.5882
 10
-12.6908
 20
-10.1424
 10
-10.9952
 20
-10.1424
 10
-10.9952
 20
-4.38437
 10
0
 20
-4.38437
 10
0
 20
4.38437
 10
-10.9952
 20
4.38437
 10
-10.9952
 20
10.1424
 10
-12.6908
 20
10.1424
 10
-14.5042
 20
11.5882
 10
-16.5931
 20
13.2537
 10
-16.5498
 20
13.3112
 10
-16.5034
 20
13.3728
 10
-16.4595
 20
13.4298
 10
-16.4123
 20
13.4912
 10
-16.3612
 20
13.5563
 10
-16.3199
 20
13.6089
 10
-16.2751
 20
13.6649
 10
-16.2262
 20
13.726
 10
-16.1731
 20
13.791
 10
-16.1312
 20
13.8423
 10
-16.0856
 20
13.8971
 10
-16.035
 20
13.9579
 10
-15.9891
 20
14.012
 10
-15.9376
 20
14.0728
 10
-15.8915
 20
14.1262
 10
-15.839
 20
14.187
 10
-15.7819
 20
14.252
 10
-15.7393
 20
14.3004
 10
-15.4416
 20
14.6343
 10
-15.4095
 20
14.6702
 10
-15.2396
 20
14.8565
 10
-8.66025
 20
14.8565
 10
-8.66025
 20
16.4398
 10
-8.66025
 20
16.9277
 10
-8.66025
 20
23.9123
 10
-10.9952
 20
23.9123
 10
-10.9952
 20
30.9123
 10
-3.89829
 20
30.9123
 10
-3.89829
 20
34.3844
 10
-3.09864
 20
34.3844
 10
-3.09864
 20
30.9123
 10
0
 20
30.9123
 10
0
 20
35
 10
-22.5
 20
35
  0
INSERT
  5
87
100
AcDbEntity
  8
0
  6
ByLayer
 62
  256
370
   -1
100
AcDbBlockReference
  2
rudderPedalMaker c profile full assembly 01
 10
0
 20
0
 30
0
 41
1
 42
1
 43
0
 50
0
 70
    1
 71
    1
 44
0
 45
0
  0
MTEXT
  5
88
100
AcDbEntity
  8
anotations
  6
ByLayer
 62
  256
370
   -1
100
AcDbMText
 10
17.79126820027416
 20
0.38676670000596
 30
0
 40
6
 41
21.33333206132072
 71
    5
 72
    1
  1
Space
  7
STANDARD
210
0
220
0
230
1
 50
0
 73
    2
 44
1
  0
LINE
  5
89
100
AcDbEntity
  8
guides
  6
ByLayer
 62
  256
370
   -1
100
AcDbLine
 10
0.004799999999999471
 20
23.91229999999999
 11
0.004799999999999471
 21
30.91229999999999
  0
MTEXT
  5
8A
100
AcDbEntity
  8
anotations
  6
ByLayer
 62
  256
370
   -1
100
AcDbMText
 10
0.07685256034019172
 20
57.57419943367232
 30
0
 40
3
 41
24.91666820952868
 71
    5
 72
    1
  1
Bearing Axis
  7
STANDARD
210
0
220
0
230
1
 50
90
 73
    2
 44
1
  0
LINE
  5
8B
100
AcDbEntity
  8
guides
  6
ByLayer
 62
  256
370
   -1
100
AcDbLine
 10
-8.66025
 20
14.8565
 11
21.33975
 21
14.8565
  0
LINE
  5
8C
100
AcDbEntity
  8
guides
  6
ByLayer
 62
  256
370
   -1
100
AcDbLine
 10
-10.9952
 20
10.1424
 11
19.0048
 21
10.1424
  0
LINE
  5
8D
100
AcDbEntity
  8
guides
  6
ByLayer
 62
  256
370
   -1
100
AcDbLine
 10
-10.9952
 20
-10.1424
 11
19.0048
 21
-10.1424
  0
LINE
  5
8E
100
AcDbEntity
  8
guides
  6
ByLayer
 62
  256
370
   -1
100
AcDbLine
 10
-8.66025
 20
-14.8565
 11
21.33975
 21
-14.8565
  0
LINE
  5
8F
100
AcDbEntity
  8
exact outline
  6
ByLayer
 62
  256
370
   -1
100
AcDbLine
 10
-22.5
 20
34.3825
 11
-3.89829
 21
34.3825
  0
LINE
  5
90
100
AcDbEntity
  8
exact outline
  6
ByLayer
 62
  256
370
   -1
100
AcDbLine
 10
-3.89829
 20
34.3825
 11
-3.89829
 21
30.9123
  0
LINE
  5
91
100
AcDbEntity
  8
exact outline
  6
ByLayer
 62
  256
370
   -1
100
AcDbLine
 10
-3.89829
 20
30.9123
 11
-10.9952
 21
30.9123
  0
LINE
  5
92
100
AcDbEntity
  8
exact outline
  6
ByLayer
 62
  256
370
   -1
100
AcDbLine
 10
-10.9952
 20
30.9123
 11
-10.9952
 21
23.9123
  0
LINE
  5
93
100
AcDbEntity
  8
exact outline
  6
ByLayer
 62
  256
370
   -1
100
AcDbLine
 10
-10.9952
 20
23.9123
 11
-8.66025
 21
23.9123
  0
LINE
  5
94
100
AcDbEntity
  8
exact outline
  6
ByLayer
 62
  256
370
   -1
100
AcDbLine
 10
-8.66025
 20
23.9123
 11
-8.66025
 21
14.8565
  0
LINE
  5
95
100
AcDbEntity
  8
exact outline
  6
ByLayer
 62
  256
370
   -1
100
AcDbLine
 10
-8.66025
 20
14.8565
 11
-16.5931
 21
14.8565
  0
LINE
  5
96
100
AcDbEntity
  8
exact outline
  6
ByLayer
 62
  256
370
   -1
100
AcDbLine
 10
-16.5931
 20
14.8565
 11
-16.5931
 21
10.1424
  0
LINE
  5
97
100
AcDbEntity
  8
exact outline
  6
ByLayer
 62
  256
370
   -1
100
AcDbLine
 10
-16.5931
 20
10.1424
 11
-10.9952
 21
10.1424
  0
LINE
  5
98
100
AcDbEntity
  8
exact outline
  6
ByLayer
 62
  256
370
   -1
100
AcDbLine
 10
-10.9952
 20
10.1424
 11
-10.9952
 21
4.384370000000001
  0
LINE
  5
99
100
AcDbEntity
  8
exact outline
  6
ByLayer
 62
  256
370
   -1
100
AcDbLine
 10
-10.9952
 20
4.384370000000001
 11
0
 21
4.38437
  0
LINE
  5
9A
100
AcDbEntity
  8
exact outline
  6
ByLayer
 62
  256
370
   -1
100
AcDbLine
 10
0
 20
4.38437
 11
-0
 21
-4.38437
  0
LINE
  5
9B
100
AcDbEntity
  8
exact outline
  6
ByLayer
 62
  256
370
   -1
100
AcDbLine
 10
-0
 20
-4.38437
 11
-10.9952
 21
-4.38437
  0
LINE
  5
9C
100
AcDbEntity
  8
exact outline
  6
ByLayer
 62
  256
370
   -1
100
AcDbLine
 10
-10.9952
 20
-4.38437
 11
-10.9952
 21
-10.1424
  0
LINE
  5
9D
100
AcDbEntity
  8
exact outline
  6
ByLayer
 62
  256
370
   -1
100
AcDbLine
 10
-10.9952
 20
-10.1424
 11
-16.5931
 21
-10.1424
  0
LINE
  5
9E
100
AcDbEntity
  8
exact outline
  6
ByLayer
 62
  256
370
   -1
100
AcDbLine
 10
-16.5931
 20
-10.1424
 11
-16.5931
 21
-14.8565
  0
LINE
  5
9F
100
AcDbEntity
  8
exact outline
  6
ByLayer
 62
  256
370
   -1
100
AcDbLine
 10
-16.5931
 20
-14.8565
 11
-8.66025
 21
-14.8565
  0
LINE
  5
A0
100
AcDbEntity
  8
exact outline
  6
ByLayer
 62
  256
370
   -1
100
AcDbLine
 10
-8.66025
 20
-14.8565
 11
-8.66025
 21
-23.9123
  0
LINE
  5
A1
100
AcDbEntity
  8
exact outline
  6
ByLayer
 62
  256
370
   -1
100
AcDbLine
 10
-8.66025
 20
-23.9123
 11
-10.9952
 21
-23.9123
  0
LINE
  5
A2
100
AcDbEntity
  8
exact outline
  6
ByLayer
 62
  256
370
   -1
100
AcDbLine
 10
-10.9952
 20
-23.9123
 11
-10.9952
 21
-30.9123
  0
LINE
  5
A3
100
AcDbEntity
  8
exact outline
  6
ByLayer
 62
  256
370
   -1
100
AcDbLine
 10
-10.9952
 20
-30.9123
 11
-3.898289999999999
 21
-30.9123
  0
LINE
  5
A4
100
AcDbEntity
  8
exact outline
  6
ByLayer
 62
  256
370
   -1
100
AcDbLine
 10
-3.898289999999999
 20
-30.9123
 11
-3.898279999999999
 21
-34.3825
  0
LINE
  5
A5
100
AcDbEntity
  8
exact outline
  6
ByLayer
 62
  256
370
   -1
100
AcDbLine
 10
-3.898279999999999
 20
-34.3825
 11
-22.5
 21
-34.3825
  0
LINE
  5
A6
100
AcDbEntity
  8
exact outline
  6
ByLayer
 62
  256
370
   -1
100
AcDbLine
 10
-22.5
 20
-34.3825
 11
-22.5
 21
34.3825
  0
LINE
  5
A7
100
AcDbEntity
  8
offset outline
  6
ByLayer
 62
  256
370
   -1
100
AcDbLine
 10
-22.5
 20
-34.3825
 11
-22.5
 21
34.3825
  0
LINE
  5
A8
100
AcDbEntity
  8
offset outline
  6
ByLayer
 62
  256
370
   -1
100
AcDbLine
 10
-22.5
 20
34.3825
 11
-4.09829
 21
34.3825
  0
LINE
  5
A9
100
AcDbEntity
  8
offset_0_2
  6
ByLayer
 62
  256
370
   -1
100
AcDbLine
 10
-4.09829
 20
34.3825
 11
-4.09829
 21
31.1123
  0
LINE
  5
AA
100
AcDbEntity
  8
offset_0_2
  6
ByLayer
 62
  256
370
   -1
100
AcDbLine
 10
-4.09829
 20
31.1123
 11
-11.1952
 21
31.1123
  0
LINE
  5
AB
100
AcDbEntity
  8
offset_0_2
  6
ByLayer
 62
  256
370
   -1
100
AcDbLine
 10
-11.1952
 20
31.1123
 11
-11.1952
 21
23.7123
  0
LINE
  5
AC
100
AcDbEntity
  8
offset_0_2
  6
ByLayer
 62
  256
370
   -1
100
AcDbLine
 10
-11.1952
 20
23.7123
 11
-9.66025
 21
23.7123
  0
LINE
  5
AD
100
AcDbEntity
  8
offset_1_0
  6
ByLayer
 62
  256
370
   -1
100
AcDbLine
 10
-9.66025
 20
23.7123
 11
-9.66025
 21
15.8565
  0
LINE
  5
AE
100
AcDbEntity
  8
offset_1_0
  6
ByLayer
 62
  256
370
   -1
100
AcDbLine
 10
-9.66025
 20
15.8565
 11
-17.5931
 21
15.8565
  0
LINE
  5
AF
100
AcDbEntity
  8
offset_1_0
  6
ByLayer
 62
  256
370
   -1
100
AcDbLine
 10
-17.5931
 20
15.8565
 11
-17.5931
 21
9.1424
  0
LINE
  5
B0
100
AcDbEntity
  8
offset_1_0
  6
ByLayer
 62
  256
370
   -1
100
AcDbLine
 10
-17.5931
 20
9.1424
 11
-11.1952
 21
9.1424
  0
LINE
  5
B1
100
AcDbEntity
  8
offset_0_2
  6
ByLayer
 62
  256
370
   -1
100
AcDbLine
 10
-11.1952
 20
9.1424
 11
-11.1952
 21
4.18437
  0
LINE
  5
B2
100
AcDbEntity
  8
offset_0_2
  6
ByLayer
 62
  256
370
   -1
100
AcDbLine
 10
-11.1952
 20
4.18437
 11
0
 21
4.184369999999999
  0
LINE
  5
B3
100
AcDbEntity
  8
offset outline
  6
ByLayer
 62
  256
370
   -1
100
AcDbLine
 10
0
 20
4.184369999999999
 11
0
 21
-4.184369999999999
  0
LINE
  5
B4
100
AcDbEntity
  8
offset_0_2
  6
ByLayer
 62
  256
370
   -1
100
AcDbLine
 10
0
 20
-4.184369999999999
 11
-11.1952
 21
-4.184369999999999
  0
LINE
  5
B5
100
AcDbEntity
  8
offset_0_2
  6
ByLayer
 62
  256
370
   -1
100
AcDbLine
 10
-11.1952
 20
-4.184369999999999
 11
-11.1952
 21
-9.1424
  0
LINE
  5
B6
100
AcDbEntity
  8
offset_1_0
  6
ByLayer
 62
  256
370
   -1
100
AcDbLine
 10
-11.1952
 20
-9.1424
 11
-17.5931
 21
-9.1424
  0
LINE
  5
B7
100
AcDbEntity
  8
offset_1_0
  6
ByLayer
 62
  256
370
   -1
100
AcDbLine
 10
-17.5931
 20
-9.1424
 11
-17.5931
 21
-15.8565
  0
LINE
  5
B8
100
AcDbEntity
  8
offset_1_0
  6
ByLayer
 62
  256
370
   -1
100
AcDbLine
 10
-17.5931
 20
-15.8565
 11
-9.66025
 21
-15.8565
  0
LINE
  5
B9
100
AcDbEntity
  8
offset_1_0
  6
ByLayer
 62
  256
370
   -1
100
AcDbLine
 10
-9.66025
 20
-15.8565
 11
-9.66025
 21
-23.7123
  0
LINE
  5
BA
100
AcDbEntity
  8
offset_0_2
  6
ByLayer
 62
  256
370
   -1
100
AcDbLine
 10
-9.66025
 20
-23.7123
 11
-11.1952
 21
-23.7123
  0
LINE
  5
BB
100
AcDbEntity
  8
offset_0_2
  6
ByLayer
 62
  256
370
   -1
100
AcDbLine
 10
-11.1952
 20
-23.7123
 11
-11.1952
 21
-31.1123
  0
LINE
  5
BC
100
AcDbEntity
  8
offset_0_2
  6
ByLayer
 62
  256
370
   -1
100
AcDbLine
 10
-11.1952
 20
-31.1123
 11
-4.098289423665172
 21
-31.1123
  0
LINE
  5
BD
100
AcDbEntity
  8
offset outline
  6
ByLayer
 62
  256
370
   -1
100
AcDbLine
 10
-4.09828000000083
 20
-34.3825
 11
-22.5
 21
-34.3825
  0
LINE
  5
BE
100
AcDbEntity
  8
offset_0_2
  6
ByLayer
 62
  256
370
   -1
100
AcDbLine
 10
-4.098289423665172
 20
-31.1123
 11
-4.09828000000083
 21
-34.3825
  0
LINE
  5
BF
100
AcDbEntity
  8
mirrored_offset_outline
  6
ByLayer
 62
  256
370
   -1
100
AcDbLine
 10
22.5
 20
-34.3825
 11
22.5
 21
34.3825
  0
LINE
  5
C0
100
AcDbEntity
  8
mirrored_offset_outline
  6
ByLayer
 62
  256
370
   -1
100
AcDbLine
 10
22.5
 20
34.3825
 11
4.09829
 21
34.3825
  0
LINE
  5
C1
100
AcDbEntity
  8
mirrored_offset_outline
  6
ByLayer
 62
  256
370
   -1
100
AcDbLine
 10
4.09829
 20
34.3825
 11
4.09829
 21
31.1123
  0
LINE
  5
C2
100
AcDbEntity
  8
mirrored_offset_outline
  6
ByLayer
 62
  256
370
   -1
100
AcDbLine
 10
4.09829
 20
31.1123
 11
11.1952
 21
31.1123
  0
LINE
  5
C3
100
AcDbEntity
  8
mirrored_offset_outline
  6
ByLayer
 62
  256
370
   -1
100
AcDbLine
 10
11.1952
 20
31.1123
 11
11.1952
 21
23.7123
  0
LINE
  5
C4
100
AcDbEntity
  8
mirrored_offset_outline
  6
ByLayer
 62
  256
370
   -1
100
AcDbLine
 10
17.5931
 20
15.8565
 11
17.5931
 21
9.1424
  0
LINE
  5
C5
100
AcDbEntity
  8
mirrored_offset_outline
  6
ByLayer
 62
  256
370
   -1
100
AcDbLine
 10
17.5931
 20
9.1424
 11
11.1952
 21
9.1424
  0
LINE
  5
C6
100
AcDbEntity
  8
mirrored_offset_outline
  6
ByLayer
 62
  256
370
   -1
100
AcDbLine
 10
11.1952
 20
9.1424
 11
11.1952
 21
4.18437
  0
LINE
  5
C7
100
AcDbEntity
  8
mirrored_offset_outline
  6
ByLayer
 62
  256
370
   -1
100
AcDbLine
 10
11.1952
 20
4.18437
 11
0
 21
4.184369999999999
  0
LINE
  5
C8
100
AcDbEntity
  8
mirrored_offset_outline
  6
ByLayer
 62
  256
370
   -1
100
AcDbLine
 10
0
 20
4.184369999999999
 11
0
 21
-4.184369999999999
  0
LINE
  5
C9
100
AcDbEntity
  8
mirrored_offset_outline
  6
ByLayer
 62
  256
370
   -1
100
AcDbLine
 10
0
 20
-4.184369999999999
 11
11.1952
 21
-4.184369999999999
  0
LINE
  5
CA
100
AcDbEntity
  8
mirrored_offset_outline
  6
ByLayer
 62
  256
370
   -1
100
AcDbLine
 10
11.1952
 20
-4.184369999999999
 11
11.1952
 21
-9.142400000000004
  0
LINE
  5
CB
100
AcDbEntity
  8
mirrored_offset_outline
  6
ByLayer
 62
  256
370
   -1
100
AcDbLine
 10
11.1952
 20
-9.142400000000004
 11
17.5931
 21
-9.142400000000004
  0
LINE
  5
CC
100
AcDbEntity
  8
mirrored_offset_outline
  6
ByLayer
 62
  256
370
   -1
100
AcDbLine
 10
17.5931
 20
-9.142400000000004
 11
17.5931
 21
-15.8565
  0
LINE
  5
CD
100
AcDbEntity
  8
mirrored_offset_outline
  6
ByLayer
 62
  256
370
   -1
100
AcDbLine
 10
11.1952
 20
-23.7123
 11
11.1952
 21
-31.1123
  0
LINE
  5
CE
100
AcDbEntity
  8
mirrored_offset_outline
  6
ByLayer
 62
  256
370
   -1
100
AcDbLine
 10
11.1952
 20
-31.1123
 11
4.098289423665172
 21
-31.1123
  0
LINE
  5
CF
100
AcDbEntity
  8
mirrored_offset_outline
  6
ByLayer
 62
  256
370
   -1
100
AcDbLine
 10
4.09828000000083
 20
-34.3825
 11
22.5
 21
-34.3825
  0
LINE
  5
D0
100
AcDbEntity
  8
mirrored_offset_outline
  6
ByLayer
 62
  256
370
   -1
100
AcDbLine
 10
4.098289423665172
 20
-31.1123
 11
4.09828000000083
 21
-34.3825
  0
LINE
  5
D1
100
AcDbEntity
  8
mirrored_offset_outline
  6
ByLayer
 62
  256
370
   -1
100
AcDbLine
 10
11.1952
 20
-15.8565
 11
11.1952
 21
-23.7123
  0
LINE
  5
D2
100
AcDbEntity
  8
mirrored_offset_outline
  6
ByLayer
 62
  256
370
   -1
100
AcDbLine
 10
11.1952
 20
15.8565
 11
17.5931
 21
15.8565
  0
LINE
  5
D3
100
AcDbEntity
  8
mirrored_offset_outline
  6
ByLayer
 62
  256
370
   -1
100
AcDbLine
 10
11.1952
 20
23.7123
 11
11.1952
 21
15.8565
  0
LINE
  5
D4
100
AcDbEntity
  8
mirrored_offset_outline
  6
ByLayer
 62
  256
370
   -1
100
AcDbLine
 10
17.5931
 20
-15.8565
 11
11.1952
 21
-15.8565
  0
LINE
  5
D5
100
AcDbEntity
  8
guides1
  6
ByLayer
 62
  256
370
   -1
100
AcDbLine
 10
0
 20
-4.184369999999999
 11
1.83697019872103e-15
 21
25.81563
  0
LINE
  5
D6
100
AcDbEntity
  8
guides1
  6
ByLayer
 62
  256
370
   -1
100
AcDbLine
 10
22.5
 20
-34.3825
 11
22.5
 21
-4.3825
  0
LINE
  5
D7
100
AcDbEntity
  8
guides1
  6
ByLayer
 62
  256
370
   -1
100
AcDbLine
 10
0
 20
-4.18437
 11
30
 21
-4.18437
  0
LINE
  5
D8
100
AcDbEntity
  8
guides1
  6
ByLayer
 62
  256
370
   -1
100
AcDbLine
 10
5.12437532694821e-16
 20
4.184369999999999
 11
30
 21
4.184369999999999
  0
LINE
  5
D9
100
AcDbEntity
  8
guides1
  6
ByLayer
 62
  256
370
   -1
100
AcDbLine
 10
4.09829
 20
34.3825
 11
34.09829
 21
34.3825
  0
LINE
  5
DA
100
AcDbEntity
  8
guides1
  6
ByLayer
 62
  256
370
   -1
100
AcDbLine
 10
4.098280000000829
 20
-34.3825
 11
34.09828000000083
 21
-34.3825
  0
LINE
  5
DB
100
AcDbEntity
  8
building blocks
  6
ByLayer
 62
  256
370
   -1
100
AcDbLine
 10
22.50000000000001
 20
42.75124
 11
7.617864890295822e-15
 21
42.75124
  0
LINE
  5
DC
100
AcDbEntity
  8
building blocks
  6
ByLayer
 62
  256
370
   -1
100
AcDbLine
 10
0
 20
-42.75124
 11
22.5
 21
-42.75124
  0
LINE
  5
DD
100
AcDbEntity
  8
guides1
  6
ByLayer
 62
  256
370
   -1
100
AcDbLine
 10
16
 20
-34.3825
 11
16
 21
-4.382499999999999
  0
LINE
  5
DE
100
AcDbEntity
  8
building blocks
  6
ByLayer
 62
  256
370
   -1
100
AcDbLine
 10
22.5
 20
-42.75124
 11
22.50000000000001
 21
42.75124
  0
LINE
  5
DF
100
AcDbEntity
  8
building blocks
  6
ByLayer
 62
  256
370
   -1
100
AcDbLine
 10
16
 20
15.8565
 11
17.5931
 21
15.8565
  0
LINE
  5
E0
100
AcDbEntity
  8
building blocks
  6
ByLayer
 62
  256
370
   -1
100
AcDbLine
 10
17.5931
 20
15.8565
 11
17.5931
 21
9.1424
  0
LINE
  5
E1
100
AcDbEntity
  8
building blocks
  6
ByLayer
 62
  256
370
   -1
100
AcDbLine
 10
17.5931
 20
9.1424
 11
16
 21
9.1424
  0
LINE
  5
E2
100
AcDbEntity
  8
building blocks
  6
ByLayer
 62
  256
370
   -1
100
AcDbLine
 10
16
 20
-9.142400000000004
 11
17.5931
 21
-9.142400000000004
  0
LINE
  5
E3
100
AcDbEntity
  8
building blocks
  6
ByLayer
 62
  256
370
   -1
100
AcDbLine
 10
17.5931
 20
-9.142400000000004
 11
17.5931
 21
-15.8565
  0
LINE
  5
E4
100
AcDbEntity
  8
building blocks
  6
ByLayer
 62
  256
370
   -1
100
AcDbLine
 10
17.5931
 20
-15.8565
 11
16
 21
-15.8565
  0
LINE
  5
E5
100
AcDbEntity
  8
building blocks
  6
ByLayer
 62
  256
370
   -1
100
AcDbLine
 10
16.00000000000001
 20
34.3825
 11
16.00000000000001
 21
15.8565
  0
LINE
  5
E6
100
AcDbEntity
  8
building blocks
  6
ByLayer
 62
  256
370
   -1
100
AcDbLine
 10
16
 20
9.1424
 11
16
 21
-9.142400000000004
  0
LINE
  5
E7
100
AcDbEntity
  8
building blocks
  6
ByLayer
 62
  256
370
   -1
100
AcDbLine
 10
16
 20
-15.8565
 11
16
 21
-34.3825
  0
LINE
  5
E8
100
AcDbEntity
  8
guides1
  6
ByLayer
 62
  256
370
   -1
100
AcDbLine
 10
-10.9952
 20
30.9123
 11
19.0048
 21
30.9123
  0
LINE
  5
E9
100
AcDbEntity
  8
building blocks
  6
ByLayer
 62
  256
370
   -1
100
AcDbLine
 10
4.09829
 20
34.3825
 11
16.00000000000001
 21
34.3825
  0
LINE
  5
EA
100
AcDbEntity
  8
building blocks
  6
ByLayer
 62
  256
370
   -1
100
AcDbLine
 10
7.105427357601002e-15
 20
34.5825
 11
4.09829
 21
34.5825
  0
LINE
  5
EB
100
AcDbEntity
  8
building blocks
  6
ByLayer
 62
  256
370
   -1
100
AcDbLine
 10
7.105427357601002e-15
 20
42.75124
 11
7.105427357601002e-15
 21
34.5825
  0
LINE
  5
EC
100
AcDbEntity
  8
building blocks
  6
ByLayer
 62
  256
370
   -1
100
AcDbLine
 10
4.09829
 20
34.5825
 11
4.09829
 21
34.3825
  0
LINE
  5
ED
100
AcDbEntity
  8
building blocks
  6
ByLayer
 62
  256
370
   -1
100
AcDbLine
 10
16
 20
-34.3825
 11
4.098280000000829
 21
-34.3825
  0
LINE
  5
EE
100
AcDbEntity
  8
building blocks
  6
ByLayer
 62
  256
370
   -1
100
AcDbLine
 10
4.098280000000829
 20
-34.5825
 11
0
 21
-34.5825
  0
LINE
  5
EF
100
AcDbEntity
  8
building blocks
  6
ByLayer
 62
  256
370
   -1
100
AcDbLine
 10
0
 20
-34.5825
 11
0
 21
-42.75124
  0
LINE
  5
F0
100
AcDbEntity
  8
building blocks
  6
ByLayer
 62
  256
370
   -1
100
AcDbLine
 10
4.09828000000083
 20
-34.3825
 11
4.098280000000829
 21
-34.5825
  0
LINE
  5
F1
100
AcDbEntity
  8
guides1
  6
ByLayer
 62
  256
370
   -1
100
AcDbLine
 10
8.000000000000005
 20
34.3825
 11
8.000000000000007
 21
64.38249999999999
  0
LINE
  5
F2
100
AcDbEntity
  8
building blocks cover
  6
ByLayer
 62
  256
370
   -1
100
AcDbLine
 10
22.50000000000001
 20
42.75124
 11
8.000000000000005
 21
42.75124
  0
LINE
  5
F3
100
AcDbEntity
  8
building blocks cover
  6
ByLayer
 62
  256
370
   -1
100
AcDbLine
 10
8.000000000000005
 20
42.75124
 11
8.000000000000002
 21
-42.75124
  0
LINE
  5
F4
100
AcDbEntity
  8
building blocks cover
  6
ByLayer
 62
  256
370
   -1
100
AcDbLine
 10
8.000000000000002
 20
-42.75124
 11
22.5
 21
-42.75124
  0
LINE
  5
F5
100
AcDbEntity
  8
building blocks cover
  6
ByLayer
 62
  256
370
   -1
100
AcDbLine
 10
22.5
 20
-42.75124
 11
22.50000000000001
 21
42.75124
  0
LINE
  5
F6
100
AcDbEntity
  8
building blocks base
  6
ByLayer
 62
  256
370
   -1
100
AcDbLine
 10
8.000000000000004
 20
42.75124
 11
7.105427357601002e-15
 21
42.75124
  0
LINE
  5
F7
100
AcDbEntity
  8
building blocks base
  6
ByLayer
 62
  256
370
   -1
100
AcDbLine
 10
0
 20
-42.75124
 11
8
 21
-42.75124
  0
LINE
  5
F8
100
AcDbEntity
  8
building blocks base
  6
ByLayer
 62
  256
370
   -1
100
AcDbLine
 10
8
 20
-42.75124
 11
8.000000000000004
 21
42.75124
  0
LINE
  5
F9
100
AcDbEntity
  8
building blocks base
  6
ByLayer
 62
  256
370
   -1
100
AcDbLine
 10
2.664535259100376e-15
 20
-4.1
 11
0
 21
-42.75124
  0
LINE
  5
FA
100
AcDbEntity
  8
building blocks base
  6
ByLayer
 62
  256
370
   -1
100
AcDbLine
 10
7.105427357601002e-15
 20
42.75124
 11
4.440892098500626e-15
 21
4.1
  0
ARC
  5
FB
100
AcDbEntity
  8
building blocks base
  6
ByLayer
 62
  256
370
   -1
100
AcDbCircle
 10
0
 20
0
 40
4.1
100
AcDbArc
 50
270
 51
449.9999999999999
  0
LINE
  5
FC
100
AcDbEntity
  8
base base
  6
ByLayer
 62
  256
370
   -1
100
AcDbLine
 10
7.105427357601002e-15
 20
42.75124
 11
22.50000000000001
 21
42.75124
  0
LINE
  5
FD
100
AcDbEntity
  8
base base
  6
ByLayer
 62
  256
370
   -1
100
AcDbLine
 10
22.50000000000001
 20
42.75124
 11
22.5
 21
-42.75124
  0
LINE
  5
FE
100
AcDbEntity
  8
base base
  6
ByLayer
 62
  256
370
   -1
100
AcDbLine
 10
22.5
 20
-42.75124
 11
0
 21
-42.75124
  0
LINE
  5
FF
100
AcDbEntity
  8
base base
  6
ByLayer
 62
  256
370
   -1
100
AcDbLine
 10
7.105427357601002e-15
 20
42.75124
 11
-22.49999999999999
 21
42.75124
  0
LINE
  5
100
100
AcDbEntity
  8
base base
  6
ByLayer
 62
  256
370
   -1
100
AcDbLine
 10
-22.49999999999999
 20
42.75124
 11
-22.5
 21
-42.75124
  0
LINE
  5
101
100
AcDbEntity
  8
base base
  6
ByLayer
 62
  256
370
   -1
100
AcDbLine
 10
-22.5
 20
-42.75124
 11
0
 21
-42.75124
  0
CIRCLE
  5
102
100
AcDbEntity
  8
base base
  6
ByLayer
 62
  256
370
   -1
100
AcDbCircle
 10
0
 20
0
 40
1.6
  0
CIRCLE
  5
103
100
AcDbEntity
  8
thrust bearing base base
  6
ByLayer
 62
  256
370
   -1
100
AcDbCircle
 10
0
 20
0
 40
4.1
  0
CIRCLE
  5
104
100
AcDbEntity
  8
washer base base
  6
ByLayer
 62
  256
370
   -1
100
AcDbCircle
 10
0
 20
0
 40
3.7
  0
CIRCLE
  5
105
100
AcDbEntity
  8
mounting hole positions
  6
ByLayer
 62
  256
370
   -1
100
AcDbCircle
 10
15.25
 20
38.5669
 40
3
  0
CIRCLE
  5
106
100
AcDbEntity
  8
mounting hole positions
  6
ByLayer
 62
  256
370
   -1
100
AcDbCircle
 10
15.25
 20
-38.5669
 40
3
  0
ENDSEC
  0
SECTION
  2
OBJECTS
  0
DICTIONARY
  5
C
330
0
100
AcDbDictionary
281
    1
  3
ACAD_GROUP
350
D
  0
DICTIONARY
  5
D
330
C
100
AcDbDictionary
281
    1
  0
PLOTSETTINGS
  5
107
100
AcDbPlotSettings
  6
1x1
 40
0
 41
0
 42
0
 43
0
  0
ENDSEC
  0
EOF
